{
  "project_info": {
    "project_number": "668312372003",
    "project_id": "global-quiz-bc4a0",
    "storage_bucket": "global-quiz-bc4a0.appspot.com"
  },
  "client": [
    {
      "client_info": {
        "mobilesdk_app_id": "1:668312372003:android:c6892bd34a912645580296",
        "android_client_info": {
          "package_name": "country.quiz.puzzle.map.currency.question.game.capital.world.geography.jigsaw"
        }
      },
      "oauth_client": [
        {
          "client_id": "668312372003-vg1j362ut00jt1q39a8r2ck788hee2m1.apps.googleusercontent.com",
          "client_type": 1,
          "android_info": {
            "package_name": "country.quiz.puzzle.map.currency.question.game.capital.world.geography.jigsaw",
            "certificate_hash": "7d0aa986111b78fb9a04ec8a67aabe32f436462d"
          }
        },
        {
          "client_id": "668312372003-maj9uaen44kbgmmvpfehc964ptrqpi5c.apps.googleusercontent.com",
          "client_type": 3
        }
      ],
      "api_key": [
        {
          "current_key": "AIzaSyCJlZaQzhAcGas0m1CXJumDN2lMR2LtySU"
        }
      ],
      "services": {
        "appinvite_service": {
          "other_platform_oauth_client": [
            {
              "client_id": "668312372003-maj9uaen44kbgmmvpfehc964ptrqpi5c.apps.googleusercontent.com",
              "client_type": 3
            }
          ]
        }
      }
    }
  ],
  "configuration_version": "1"
}